{
  "name": "network_file_system",
  "do": "<ul><li>To access or share files across servers.</li></ul>",
  "dont": "",
  "tags": ["eos", "network", "file system", "servers", "share files"],
  "category": "virtualization",
  "type": "static",
  "date": "30/11/2020",
  "hasOutlined": true,
  "dateOutlined": "3/17/2021"
}
