{
  "name": "pod",
  "do": "<ul><li>To represent a group of containers.</li></ul>",
  "dont": "<ul><li>To represent a single container.</li></ul>",
  "tags": ["eos", "kubernetes", "pod", "containers"],
  "category": "virtualization",
  "type": "static",
  "date": "30/11/2020",
  "hasOutlined": true,
  "dateOutlined": "4/13/2021"
}
