{
  "name": "pull_request",
  "do": "<ul><li>Use it to represent the act of requesting the consolidation of two branches, states, into one.</li></ul>",
  "dont": "<ul><li>Don't use to represent directions.</li></ul>",
  "tags": [
    "eos",
    "petition",
    "solicit",
    "review",
    "check",
    "merge",
    "blend",
    "unite",
    "meld",
    "incorporate",
    "absorb",
    "consolidate",
    "fuse",
    "git"
  ],
  "category": "development",
  "type": "static",
  "date": "30/11/2020",
  "hasOutlined": true,
  "dateOutlined": "22/04/2021"
}
