{
  "name": "service_plan",
  "do": "<ul><li>To represent a service or product plan, where plan is the detail of benefits the user subscribed/paid for.</li></ul>",
  "dont": "<ul><li>To represent service or service instance.</li><li>To represent a singular product.</li></ul>",
  "tags": ["eos", "service", "plans", "supply", "serve"],
  "category": "services",
  "type": "static",
  "date": "30/11/2020",
  "hasOutlined": true,
  "dateOutlined": "4/26/2021"
}
